[
  {
    "addPlayerActions2": "1|75|10,1|65|1002",
    "addPlayerActions1": "1|75|10,1|65|1001",
    "addPlayerActions4": "",
    "addPlayerActions3": "",
    "addPlayerActions6": "",
    "id": "1",
    "addPlayerActions5": "",
    "equipmentGroup": "1,2",
    "addPlayerActions7": ""
  },
  {
    "addPlayerActions2": "1|75|10,1|65|2002",
    "addPlayerActions1": "1|75|10,1|65|2001",
    "addPlayerActions4": "",
    "addPlayerActions3": "",
    "addPlayerActions6": "",
    "id": "2",
    "addPlayerActions5": "",
    "equipmentGroup": "3,4",
    "addPlayerActions7": ""
  },
  {
    "addPlayerActions2": "1|75|10,1|65|3002",
    "addPlayerActions1": "1|75|10,1|65|3001",
    "addPlayerActions4": "",
    "addPlayerActions3": "",
    "addPlayerActions6": "",
    "id": "3",
    "addPlayerActions5": "",
    "equipmentGroup": "5,6",
    "addPlayerActions7": ""
  },
  {
    "addPlayerActions2": "1|75|10,1|65|4002",
    "addPlayerActions1": "1|75|10,1|65|4001",
    "addPlayerActions4": "",
    "addPlayerActions3": "",
    "addPlayerActions6": "",
    "id": "4",
    "addPlayerActions5": "",
    "equipmentGroup": "7,8",
    "addPlayerActions7": ""
  },
  {
    "addPlayerActions2": "1|75|10,1|65|5002",
    "addPlayerActions1": "1|75|10,1|65|5001",
    "addPlayerActions4": "",
    "addPlayerActions3": "",
    "addPlayerActions6": "",
    "id": "5",
    "addPlayerActions5": "",
    "equipmentGroup": "9,10",
    "addPlayerActions7": ""
  }
]