[
  {
    "attributeID": "0",
    "currentMaxID": "1",
    "isCurrent": "1",
    "isPercent": "",
    "isDispatch": "1",
    "maxValue": "",
    "formula": "",
    "autoIncreaseCurrentID": "",
    "isAutoIncreaseCurrent": "",
    "pushType": "3"
  },
  {
    "attributeID": "1",
    "currentMaxID": "",
    "isCurrent": "",
    "isPercent": "",
    "isDispatch": "1",
    "maxValue": "",
    "formula": "4,2,3,4,5",
    "autoIncreaseCurrentID": "",
    "isAutoIncreaseCurrent": "",
    "pushType": "3"
  },
  {
    "attributeID": "2",
    "currentMaxID": "",
    "isCurrent": "",
    "isPercent": "",
    "isDispatch": "",
    "maxValue": "",
    "formula": "",
    "autoIncreaseCurrentID": "",
    "isAutoIncreaseCurrent": "",
    "pushType": ""
  },
  {
    "attributeID": "3",
    "currentMaxID": "",
    "isCurrent": "",
    "isPercent": "1",
    "isDispatch": "",
    "maxValue": "",
    "formula": "",
    "autoIncreaseCurrentID": "",
    "isAutoIncreaseCurrent": "",
    "pushType": ""
  },
  {
    "attributeID": "4",
    "currentMaxID": "",
    "isCurrent": "",
    "isPercent": "",
    "isDispatch": "",
    "maxValue": "",
    "formula": "",
    "autoIncreaseCurrentID": "",
    "isAutoIncreaseCurrent": "",
    "pushType": ""
  },
  {
    "attributeID": "5",
    "currentMaxID": "",
    "isCurrent": "",
    "isPercent": "1",
    "isDispatch": "",
    "maxValue": "",
    "formula": "",
    "autoIncreaseCurrentID": "",
    "isAutoIncreaseCurrent": "",
    "pushType": ""
  },
  {
    "attributeID": "6",
    "currentMaxID": "7",
    "isCurrent": "1",
    "isPercent": "",
    "isDispatch": "1",
    "maxValue": "",
    "formula": "",
    "autoIncreaseCurrentID": "",
    "isAutoIncreaseCurrent": "",
    "pushType": "1"
  },
  {
    "attributeID": "7",
    "currentMaxID": "",
    "isCurrent": "",
    "isPercent": "",
    "isDispatch": "1",
    "maxValue": "",
    "formula": "4,8,9,10,11",
    "autoIncreaseCurrentID": "",
    "isAutoIncreaseCurrent": "",
    "pushType": "1"
  },
  {
    "attributeID": "8",
    "currentMaxID": "",
    "isCurrent": "",
    "isPercent": "",
    "isDispatch": "",
    "maxValue": "",
    "formula": "",
    "autoIncreaseCurrentID": "",
    "isAutoIncreaseCurrent": "",
    "pushType": ""
  },
  {
    "attributeID": "9",
    "currentMaxID": "",
    "isCurrent": "",
    "isPercent": "1",
    "isDispatch": "",
    "maxValue": "",
    "formula": "",
    "autoIncreaseCurrentID": "",
    "isAutoIncreaseCurrent": "",
    "pushType": ""
  },
  {
    "attributeID": "10",
    "currentMaxID": "",
    "isCurrent": "",
    "isPercent": "",
    "isDispatch": "",
    "maxValue": "",
    "formula": "",
    "autoIncreaseCurrentID": "",
    "isAutoIncreaseCurrent": "",
    "pushType": ""
  },
  {
    "attributeID": "11",
    "currentMaxID": "",
    "isCurrent": "",
    "isPercent": "1",
    "isDispatch": "",
    "maxValue": "",
    "formula": "",
    "autoIncreaseCurrentID": "",
    "isAutoIncreaseCurrent": "",
    "pushType": ""
  },
  {
    "attributeID": "12",
    "currentMaxID": "13",
    "isCurrent": "1",
    "isPercent": "",
    "isDispatch": "1",
    "maxValue": "",
    "formula": "",
    "autoIncreaseCurrentID": "",
    "isAutoIncreaseCurrent": "",
    "pushType": "1"
  },
  {
    "attributeID": "13",
    "currentMaxID": "",
    "isCurrent": "",
    "isPercent": "",
    "isDispatch": "1",
    "maxValue": "",
    "formula": "4,14,15,16,17",
    "autoIncreaseCurrentID": "",
    "isAutoIncreaseCurrent": "",
    "pushType": "1"
  },
  {
    "attributeID": "14",
    "currentMaxID": "",
    "isCurrent": "",
    "isPercent": "",
    "isDispatch": "",
    "maxValue": "",
    "formula": "",
    "autoIncreaseCurrentID": "",
    "isAutoIncreaseCurrent": "",
    "pushType": ""
  },
  {
    "attributeID": "15",
    "currentMaxID": "",
    "isCurrent": "",
    "isPercent": "1",
    "isDispatch": "",
    "maxValue": "",
    "formula": "",
    "autoIncreaseCurrentID": "",
    "isAutoIncreaseCurrent": "",
    "pushType": ""
  },
  {
    "attributeID": "16",
    "currentMaxID": "",
    "isCurrent": "",
    "isPercent": "",
    "isDispatch": "",
    "maxValue": "",
    "formula": "",
    "autoIncreaseCurrentID": "",
    "isAutoIncreaseCurrent": "",
    "pushType": ""
  },
  {
    "attributeID": "17",
    "currentMaxID": "",
    "isCurrent": "",
    "isPercent": "1",
    "isDispatch": "",
    "maxValue": "",
    "formula": "",
    "autoIncreaseCurrentID": "",
    "isAutoIncreaseCurrent": "",
    "pushType": ""
  },
  {
    "attributeID": "18",
    "currentMaxID": "",
    "isCurrent": "",
    "isPercent": "",
    "isDispatch": "",
    "maxValue": "",
    "formula": "4,19,20,21,22",
    "autoIncreaseCurrentID": "",
    "isAutoIncreaseCurrent": "",
    "pushType": "1"
  },
  {
    "attributeID": "19",
    "currentMaxID": "",
    "isCurrent": "",
    "isPercent": "",
    "isDispatch": "",
    "maxValue": "100",
    "formula": "",
    "autoIncreaseCurrentID": "",
    "isAutoIncreaseCurrent": "",
    "pushType": ""
  },
  {
    "attributeID": "20",
    "currentMaxID": "",
    "isCurrent": "",
    "isPercent": "",
    "isDispatch": "",
    "maxValue": "",
    "formula": "",
    "autoIncreaseCurrentID": "",
    "isAutoIncreaseCurrent": "",
    "pushType": ""
  },
  {
    "attributeID": "21",
    "currentMaxID": "",
    "isCurrent": "",
    "isPercent": "",
    "isDispatch": "",
    "maxValue": "",
    "formula": "",
    "autoIncreaseCurrentID": "",
    "isAutoIncreaseCurrent": "",
    "pushType": ""
  },
  {
    "attributeID": "22",
    "currentMaxID": "",
    "isCurrent": "",
    "isPercent": "",
    "isDispatch": "",
    "maxValue": "",
    "formula": "",
    "autoIncreaseCurrentID": "",
    "isAutoIncreaseCurrent": "",
    "pushType": ""
  },
  {
    "attributeID": "23",
    "currentMaxID": "",
    "isCurrent": "",
    "isPercent": "",
    "isDispatch": "",
    "maxValue": "",
    "formula": "",
    "autoIncreaseCurrentID": "",
    "isAutoIncreaseCurrent": "",
    "pushType": "1"
  },
  {
    "attributeID": "24",
    "currentMaxID": "",
    "isCurrent": "",
    "isPercent": "",
    "isDispatch": "",
    "maxValue": "",
    "formula": "",
    "autoIncreaseCurrentID": "",
    "isAutoIncreaseCurrent": "",
    "pushType": ""
  },
  {
    "attributeID": "25",
    "currentMaxID": "",
    "isCurrent": "",
    "isPercent": "",
    "isDispatch": "",
    "maxValue": "",
    "formula": "",
    "autoIncreaseCurrentID": "",
    "isAutoIncreaseCurrent": "",
    "pushType": ""
  },
  {
    "attributeID": "26",
    "currentMaxID": "",
    "isCurrent": "",
    "isPercent": "",
    "isDispatch": "",
    "maxValue": "",
    "formula": "",
    "autoIncreaseCurrentID": "",
    "isAutoIncreaseCurrent": "",
    "pushType": ""
  },
  {
    "attributeID": "27",
    "currentMaxID": "",
    "isCurrent": "",
    "isPercent": "",
    "isDispatch": "",
    "maxValue": "",
    "formula": "",
    "autoIncreaseCurrentID": "",
    "isAutoIncreaseCurrent": "",
    "pushType": ""
  },
  {
    "attributeID": "28",
    "currentMaxID": "",
    "isCurrent": "",
    "isPercent": "1",
    "isDispatch": "",
    "maxValue": "",
    "formula": "",
    "autoIncreaseCurrentID": "",
    "isAutoIncreaseCurrent": "",
    "pushType": ""
  },
  {
    "attributeID": "29",
    "currentMaxID": "",
    "isCurrent": "",
    "isPercent": "",
    "isDispatch": "",
    "maxValue": "",
    "formula": "",
    "autoIncreaseCurrentID": "",
    "isAutoIncreaseCurrent": "",
    "pushType": ""
  },
  {
    "attributeID": "30",
    "currentMaxID": "",
    "isCurrent": "",
    "isPercent": "",
    "isDispatch": "",
    "maxValue": "",
    "formula": "",
    "autoIncreaseCurrentID": "",
    "isAutoIncreaseCurrent": "",
    "pushType": ""
  },
  {
    "attributeID": "31",
    "currentMaxID": "",
    "isCurrent": "",
    "isPercent": "",
    "isDispatch": "",
    "maxValue": "",
    "formula": "",
    "autoIncreaseCurrentID": "",
    "isAutoIncreaseCurrent": "",
    "pushType": ""
  },
  {
    "attributeID": "32",
    "currentMaxID": "",
    "isCurrent": "",
    "isPercent": "",
    "isDispatch": "",
    "maxValue": "",
    "formula": "",
    "autoIncreaseCurrentID": "",
    "isAutoIncreaseCurrent": "",
    "pushType": ""
  },
  {
    "attributeID": "33",
    "currentMaxID": "",
    "isCurrent": "",
    "isPercent": "1",
    "isDispatch": "",
    "maxValue": "",
    "formula": "",
    "autoIncreaseCurrentID": "",
    "isAutoIncreaseCurrent": "",
    "pushType": ""
  },
  {
    "attributeID": "34",
    "currentMaxID": "",
    "isCurrent": "",
    "isPercent": "",
    "isDispatch": "",
    "maxValue": "",
    "formula": "",
    "autoIncreaseCurrentID": "",
    "isAutoIncreaseCurrent": "",
    "pushType": ""
  },
  {
    "attributeID": "35",
    "currentMaxID": "",
    "isCurrent": "",
    "isPercent": "",
    "isDispatch": "",
    "maxValue": "",
    "formula": "",
    "autoIncreaseCurrentID": "",
    "isAutoIncreaseCurrent": "",
    "pushType": ""
  },
  {
    "attributeID": "36",
    "currentMaxID": "",
    "isCurrent": "",
    "isPercent": "",
    "isDispatch": "",
    "maxValue": "",
    "formula": "",
    "autoIncreaseCurrentID": "",
    "isAutoIncreaseCurrent": "",
    "pushType": ""
  },
  {
    "attributeID": "37",
    "currentMaxID": "",
    "isCurrent": "",
    "isPercent": "",
    "isDispatch": "",
    "maxValue": "",
    "formula": "",
    "autoIncreaseCurrentID": "",
    "isAutoIncreaseCurrent": "",
    "pushType": ""
  },
  {
    "attributeID": "38",
    "currentMaxID": "",
    "isCurrent": "",
    "isPercent": "1",
    "isDispatch": "",
    "maxValue": "",
    "formula": "",
    "autoIncreaseCurrentID": "",
    "isAutoIncreaseCurrent": "",
    "pushType": ""
  },
  {
    "attributeID": "39",
    "currentMaxID": "",
    "isCurrent": "",
    "isPercent": "",
    "isDispatch": "",
    "maxValue": "",
    "formula": "",
    "autoIncreaseCurrentID": "",
    "isAutoIncreaseCurrent": "",
    "pushType": ""
  },
  {
    "attributeID": "40",
    "currentMaxID": "",
    "isCurrent": "",
    "isPercent": "",
    "isDispatch": "",
    "maxValue": "",
    "formula": "",
    "autoIncreaseCurrentID": "",
    "isAutoIncreaseCurrent": "",
    "pushType": ""
  },
  {
    "attributeID": "41",
    "currentMaxID": "",
    "isCurrent": "",
    "isPercent": "",
    "isDispatch": "",
    "maxValue": "",
    "formula": "",
    "autoIncreaseCurrentID": "",
    "isAutoIncreaseCurrent": "",
    "pushType": ""
  },
  {
    "attributeID": "42",
    "currentMaxID": "",
    "isCurrent": "",
    "isPercent": "",
    "isDispatch": "",
    "maxValue": "",
    "formula": "",
    "autoIncreaseCurrentID": "",
    "isAutoIncreaseCurrent": "",
    "pushType": ""
  },
  {
    "attributeID": "43",
    "currentMaxID": "",
    "isCurrent": "",
    "isPercent": "",
    "isDispatch": "",
    "maxValue": "",
    "formula": "",
    "autoIncreaseCurrentID": "",
    "isAutoIncreaseCurrent": "",
    "pushType": ""
  },
  {
    "attributeID": "44",
    "currentMaxID": "",
    "isCurrent": "",
    "isPercent": "",
    "isDispatch": "",
    "maxValue": "",
    "formula": "",
    "autoIncreaseCurrentID": "",
    "isAutoIncreaseCurrent": "",
    "pushType": ""
  },
  {
    "attributeID": "45",
    "currentMaxID": "",
    "isCurrent": "",
    "isPercent": "",
    "isDispatch": "",
    "maxValue": "",
    "formula": "",
    "autoIncreaseCurrentID": "",
    "isAutoIncreaseCurrent": "",
    "pushType": ""
  },
  {
    "attributeID": "46",
    "currentMaxID": "",
    "isCurrent": "",
    "isPercent": "",
    "isDispatch": "",
    "maxValue": "",
    "formula": "",
    "autoIncreaseCurrentID": "",
    "isAutoIncreaseCurrent": "",
    "pushType": ""
  },
  {
    "attributeID": "47",
    "currentMaxID": "",
    "isCurrent": "",
    "isPercent": "",
    "isDispatch": "",
    "maxValue": "",
    "formula": "",
    "autoIncreaseCurrentID": "",
    "isAutoIncreaseCurrent": "",
    "pushType": ""
  },
  {
    "attributeID": "48",
    "currentMaxID": "",
    "isCurrent": "",
    "isPercent": "",
    "isDispatch": "",
    "maxValue": "",
    "formula": "",
    "autoIncreaseCurrentID": "",
    "isAutoIncreaseCurrent": "",
    "pushType": ""
  },
  {
    "attributeID": "49",
    "currentMaxID": "",
    "isCurrent": "",
    "isPercent": "",
    "isDispatch": "",
    "maxValue": "",
    "formula": "",
    "autoIncreaseCurrentID": "",
    "isAutoIncreaseCurrent": "",
    "pushType": ""
  },
  {
    "attributeID": "50",
    "currentMaxID": "",
    "isCurrent": "",
    "isPercent": "",
    "isDispatch": "",
    "maxValue": "",
    "formula": "",
    "autoIncreaseCurrentID": "",
    "isAutoIncreaseCurrent": "",
    "pushType": ""
  },
  {
    "attributeID": "51",
    "currentMaxID": "",
    "isCurrent": "",
    "isPercent": "",
    "isDispatch": "",
    "maxValue": "",
    "formula": "",
    "autoIncreaseCurrentID": "",
    "isAutoIncreaseCurrent": "",
    "pushType": ""
  },
  {
    "attributeID": "52",
    "currentMaxID": "",
    "isCurrent": "",
    "isPercent": "",
    "isDispatch": "",
    "maxValue": "",
    "formula": "",
    "autoIncreaseCurrentID": "",
    "isAutoIncreaseCurrent": "",
    "pushType": ""
  },
  {
    "attributeID": "53",
    "currentMaxID": "",
    "isCurrent": "",
    "isPercent": "",
    "isDispatch": "",
    "maxValue": "",
    "formula": "",
    "autoIncreaseCurrentID": "",
    "isAutoIncreaseCurrent": "",
    "pushType": ""
  },
  {
    "attributeID": "54",
    "currentMaxID": "",
    "isCurrent": "",
    "isPercent": "",
    "isDispatch": "",
    "maxValue": "",
    "formula": "",
    "autoIncreaseCurrentID": "",
    "isAutoIncreaseCurrent": "",
    "pushType": ""
  },
  {
    "attributeID": "55",
    "currentMaxID": "",
    "isCurrent": "",
    "isPercent": "",
    "isDispatch": "",
    "maxValue": "",
    "formula": "",
    "autoIncreaseCurrentID": "",
    "isAutoIncreaseCurrent": "",
    "pushType": ""
  },
  {
    "attributeID": "56",
    "currentMaxID": "",
    "isCurrent": "",
    "isPercent": "",
    "isDispatch": "",
    "maxValue": "",
    "formula": "",
    "autoIncreaseCurrentID": "",
    "isAutoIncreaseCurrent": "",
    "pushType": ""
  },
  {
    "attributeID": "57",
    "currentMaxID": "",
    "isCurrent": "",
    "isPercent": "",
    "isDispatch": "",
    "maxValue": "",
    "formula": "",
    "autoIncreaseCurrentID": "",
    "isAutoIncreaseCurrent": "",
    "pushType": ""
  },
  {
    "attributeID": "58",
    "currentMaxID": "",
    "isCurrent": "",
    "isPercent": "",
    "isDispatch": "",
    "maxValue": "",
    "formula": "",
    "autoIncreaseCurrentID": "",
    "isAutoIncreaseCurrent": "",
    "pushType": ""
  },
  {
    "attributeID": "59",
    "currentMaxID": "",
    "isCurrent": "",
    "isPercent": "",
    "isDispatch": "",
    "maxValue": "",
    "formula": "",
    "autoIncreaseCurrentID": "",
    "isAutoIncreaseCurrent": "",
    "pushType": ""
  },
  {
    "attributeID": "60",
    "currentMaxID": "",
    "isCurrent": "",
    "isPercent": "",
    "isDispatch": "",
    "maxValue": "",
    "formula": "",
    "autoIncreaseCurrentID": "",
    "isAutoIncreaseCurrent": "",
    "pushType": ""
  },
  {
    "attributeID": "61",
    "currentMaxID": "",
    "isCurrent": "",
    "isPercent": "",
    "isDispatch": "",
    "maxValue": "",
    "formula": "",
    "autoIncreaseCurrentID": "",
    "isAutoIncreaseCurrent": "",
    "pushType": ""
  },
  {
    "attributeID": "62",
    "currentMaxID": "",
    "isCurrent": "",
    "isPercent": "",
    "isDispatch": "",
    "maxValue": "",
    "formula": "",
    "autoIncreaseCurrentID": "",
    "isAutoIncreaseCurrent": "",
    "pushType": ""
  },
  {
    "attributeID": "63",
    "currentMaxID": "",
    "isCurrent": "",
    "isPercent": "",
    "isDispatch": "",
    "maxValue": "",
    "formula": "",
    "autoIncreaseCurrentID": "",
    "isAutoIncreaseCurrent": "",
    "pushType": ""
  },
  {
    "attributeID": "64",
    "currentMaxID": "",
    "isCurrent": "",
    "isPercent": "",
    "isDispatch": "",
    "maxValue": "",
    "formula": "",
    "autoIncreaseCurrentID": "",
    "isAutoIncreaseCurrent": "",
    "pushType": ""
  },
  {
    "attributeID": "65",
    "currentMaxID": "",
    "isCurrent": "",
    "isPercent": "",
    "isDispatch": "",
    "maxValue": "",
    "formula": "",
    "autoIncreaseCurrentID": "",
    "isAutoIncreaseCurrent": "",
    "pushType": ""
  },
  {
    "attributeID": "66",
    "currentMaxID": "",
    "isCurrent": "",
    "isPercent": "",
    "isDispatch": "",
    "maxValue": "",
    "formula": "",
    "autoIncreaseCurrentID": "",
    "isAutoIncreaseCurrent": "",
    "pushType": ""
  },
  {
    "attributeID": "67",
    "currentMaxID": "",
    "isCurrent": "",
    "isPercent": "",
    "isDispatch": "",
    "maxValue": "",
    "formula": "",
    "autoIncreaseCurrentID": "",
    "isAutoIncreaseCurrent": "",
    "pushType": ""
  },
  {
    "attributeID": "68",
    "currentMaxID": "",
    "isCurrent": "",
    "isPercent": "",
    "isDispatch": "",
    "maxValue": "",
    "formula": "",
    "autoIncreaseCurrentID": "",
    "isAutoIncreaseCurrent": "",
    "pushType": ""
  },
  {
    "attributeID": "69",
    "currentMaxID": "",
    "isCurrent": "",
    "isPercent": "",
    "isDispatch": "",
    "maxValue": "",
    "formula": "",
    "autoIncreaseCurrentID": "",
    "isAutoIncreaseCurrent": "",
    "pushType": ""
  },
  {
    "attributeID": "70",
    "currentMaxID": "",
    "isCurrent": "",
    "isPercent": "",
    "isDispatch": "",
    "maxValue": "",
    "formula": "",
    "autoIncreaseCurrentID": "",
    "isAutoIncreaseCurrent": "",
    "pushType": ""
  },
  {
    "attributeID": "71",
    "currentMaxID": "",
    "isCurrent": "",
    "isPercent": "",
    "isDispatch": "",
    "maxValue": "",
    "formula": "",
    "autoIncreaseCurrentID": "",
    "isAutoIncreaseCurrent": "",
    "pushType": ""
  },
  {
    "attributeID": "72",
    "currentMaxID": "",
    "isCurrent": "",
    "isPercent": "",
    "isDispatch": "",
    "maxValue": "",
    "formula": "",
    "autoIncreaseCurrentID": "",
    "isAutoIncreaseCurrent": "",
    "pushType": ""
  },
  {
    "attributeID": "73",
    "currentMaxID": "",
    "isCurrent": "",
    "isPercent": "",
    "isDispatch": "",
    "maxValue": "",
    "formula": "",
    "autoIncreaseCurrentID": "",
    "isAutoIncreaseCurrent": "",
    "pushType": ""
  },
  {
    "attributeID": "74",
    "currentMaxID": "",
    "isCurrent": "",
    "isPercent": "",
    "isDispatch": "",
    "maxValue": "",
    "formula": "",
    "autoIncreaseCurrentID": "",
    "isAutoIncreaseCurrent": "",
    "pushType": ""
  },
  {
    "attributeID": "75",
    "currentMaxID": "",
    "isCurrent": "",
    "isPercent": "",
    "isDispatch": "",
    "maxValue": "",
    "formula": "",
    "autoIncreaseCurrentID": "",
    "isAutoIncreaseCurrent": "",
    "pushType": ""
  },
  {
    "attributeID": "76",
    "currentMaxID": "",
    "isCurrent": "",
    "isPercent": "",
    "isDispatch": "",
    "maxValue": "",
    "formula": "",
    "autoIncreaseCurrentID": "",
    "isAutoIncreaseCurrent": "",
    "pushType": ""
  },
  {
    "attributeID": "77",
    "currentMaxID": "",
    "isCurrent": "",
    "isPercent": "",
    "isDispatch": "",
    "maxValue": "",
    "formula": "",
    "autoIncreaseCurrentID": "",
    "isAutoIncreaseCurrent": "",
    "pushType": ""
  },
  {
    "attributeID": "78",
    "currentMaxID": "",
    "isCurrent": "",
    "isPercent": "",
    "isDispatch": "",
    "maxValue": "",
    "formula": "",
    "autoIncreaseCurrentID": "",
    "isAutoIncreaseCurrent": "",
    "pushType": ""
  },
  {
    "attributeID": "79",
    "currentMaxID": "",
    "isCurrent": "",
    "isPercent": "",
    "isDispatch": "",
    "maxValue": "",
    "formula": "",
    "autoIncreaseCurrentID": "",
    "isAutoIncreaseCurrent": "",
    "pushType": ""
  },
  {
    "attributeID": "80",
    "currentMaxID": "",
    "isCurrent": "",
    "isPercent": "",
    "isDispatch": "",
    "maxValue": "",
    "formula": "",
    "autoIncreaseCurrentID": "",
    "isAutoIncreaseCurrent": "",
    "pushType": ""
  },
  {
    "attributeID": "81",
    "currentMaxID": "",
    "isCurrent": "",
    "isPercent": "",
    "isDispatch": "",
    "maxValue": "",
    "formula": "",
    "autoIncreaseCurrentID": "",
    "isAutoIncreaseCurrent": "",
    "pushType": ""
  },
  {
    "attributeID": "82",
    "currentMaxID": "",
    "isCurrent": "",
    "isPercent": "",
    "isDispatch": "",
    "maxValue": "",
    "formula": "",
    "autoIncreaseCurrentID": "",
    "isAutoIncreaseCurrent": "",
    "pushType": ""
  },
  {
    "attributeID": "83",
    "currentMaxID": "",
    "isCurrent": "",
    "isPercent": "",
    "isDispatch": "",
    "maxValue": "",
    "formula": "",
    "autoIncreaseCurrentID": "",
    "isAutoIncreaseCurrent": "",
    "pushType": ""
  },
  {
    "attributeID": "84",
    "currentMaxID": "",
    "isCurrent": "",
    "isPercent": "",
    "isDispatch": "",
    "maxValue": "",
    "formula": "",
    "autoIncreaseCurrentID": "",
    "isAutoIncreaseCurrent": "",
    "pushType": ""
  },
  {
    "attributeID": "85",
    "currentMaxID": "",
    "isCurrent": "",
    "isPercent": "",
    "isDispatch": "",
    "maxValue": "",
    "formula": "",
    "autoIncreaseCurrentID": "",
    "isAutoIncreaseCurrent": "",
    "pushType": ""
  },
  {
    "attributeID": "86",
    "currentMaxID": "",
    "isCurrent": "",
    "isPercent": "",
    "isDispatch": "",
    "maxValue": "",
    "formula": "",
    "autoIncreaseCurrentID": "",
    "isAutoIncreaseCurrent": "",
    "pushType": ""
  },
  {
    "attributeID": "87",
    "currentMaxID": "",
    "isCurrent": "",
    "isPercent": "",
    "isDispatch": "",
    "maxValue": "",
    "formula": "",
    "autoIncreaseCurrentID": "",
    "isAutoIncreaseCurrent": "",
    "pushType": ""
  },
  {
    "attributeID": "88",
    "currentMaxID": "",
    "isCurrent": "",
    "isPercent": "",
    "isDispatch": "",
    "maxValue": "",
    "formula": "",
    "autoIncreaseCurrentID": "",
    "isAutoIncreaseCurrent": "",
    "pushType": ""
  },
  {
    "attributeID": "89",
    "currentMaxID": "",
    "isCurrent": "",
    "isPercent": "",
    "isDispatch": "",
    "maxValue": "",
    "formula": "",
    "autoIncreaseCurrentID": "",
    "isAutoIncreaseCurrent": "",
    "pushType": ""
  },
  {
    "attributeID": "90",
    "currentMaxID": "",
    "isCurrent": "",
    "isPercent": "",
    "isDispatch": "",
    "maxValue": "",
    "formula": "",
    "autoIncreaseCurrentID": "",
    "isAutoIncreaseCurrent": "",
    "pushType": ""
  },
  {
    "attributeID": "91",
    "currentMaxID": "",
    "isCurrent": "",
    "isPercent": "",
    "isDispatch": "",
    "maxValue": "",
    "formula": "",
    "autoIncreaseCurrentID": "",
    "isAutoIncreaseCurrent": "",
    "pushType": ""
  },
  {
    "attributeID": "92",
    "currentMaxID": "",
    "isCurrent": "",
    "isPercent": "",
    "isDispatch": "",
    "maxValue": "",
    "formula": "",
    "autoIncreaseCurrentID": "",
    "isAutoIncreaseCurrent": "",
    "pushType": ""
  },
  {
    "attributeID": "93",
    "currentMaxID": "",
    "isCurrent": "",
    "isPercent": "",
    "isDispatch": "",
    "maxValue": "",
    "formula": "",
    "autoIncreaseCurrentID": "",
    "isAutoIncreaseCurrent": "",
    "pushType": ""
  },
  {
    "attributeID": "94",
    "currentMaxID": "",
    "isCurrent": "",
    "isPercent": "",
    "isDispatch": "",
    "maxValue": "",
    "formula": "",
    "autoIncreaseCurrentID": "",
    "isAutoIncreaseCurrent": "",
    "pushType": ""
  },
  {
    "attributeID": "95",
    "currentMaxID": "",
    "isCurrent": "",
    "isPercent": "",
    "isDispatch": "",
    "maxValue": "",
    "formula": "",
    "autoIncreaseCurrentID": "",
    "isAutoIncreaseCurrent": "",
    "pushType": ""
  },
  {
    "attributeID": "96",
    "currentMaxID": "",
    "isCurrent": "",
    "isPercent": "",
    "isDispatch": "",
    "maxValue": "",
    "formula": "",
    "autoIncreaseCurrentID": "",
    "isAutoIncreaseCurrent": "",
    "pushType": ""
  },
  {
    "attributeID": "97",
    "currentMaxID": "",
    "isCurrent": "",
    "isPercent": "",
    "isDispatch": "",
    "maxValue": "",
    "formula": "",
    "autoIncreaseCurrentID": "",
    "isAutoIncreaseCurrent": "",
    "pushType": ""
  },
  {
    "attributeID": "98",
    "currentMaxID": "",
    "isCurrent": "",
    "isPercent": "",
    "isDispatch": "",
    "maxValue": "",
    "formula": "",
    "autoIncreaseCurrentID": "",
    "isAutoIncreaseCurrent": "",
    "pushType": ""
  },
  {
    "attributeID": "99",
    "currentMaxID": "",
    "isCurrent": "",
    "isPercent": "",
    "isDispatch": "",
    "maxValue": "",
    "formula": "",
    "autoIncreaseCurrentID": "",
    "isAutoIncreaseCurrent": "",
    "pushType": ""
  },
  {
    "attributeID": "100",
    "currentMaxID": "",
    "isCurrent": "",
    "isPercent": "",
    "isDispatch": "",
    "maxValue": "",
    "formula": "",
    "autoIncreaseCurrentID": "",
    "isAutoIncreaseCurrent": "",
    "pushType": ""
  },
  {
    "attributeID": "101",
    "currentMaxID": "",
    "isCurrent": "",
    "isPercent": "",
    "isDispatch": "",
    "maxValue": "",
    "formula": "",
    "autoIncreaseCurrentID": "0",
    "isAutoIncreaseCurrent": "1",
    "pushType": ""
  },
  {
    "attributeID": "102",
    "currentMaxID": "",
    "isCurrent": "",
    "isPercent": "",
    "isDispatch": "",
    "maxValue": "",
    "formula": "",
    "autoIncreaseCurrentID": "6",
    "isAutoIncreaseCurrent": "1",
    "pushType": ""
  },
  {
    "attributeID": "103",
    "currentMaxID": "",
    "isCurrent": "",
    "isPercent": "",
    "isDispatch": "",
    "maxValue": "",
    "formula": "",
    "autoIncreaseCurrentID": "",
    "isAutoIncreaseCurrent": "",
    "pushType": ""
  }
]