[
  {
    "modelID": "1",
    "partID": "1",
    "avatarPartType": "1"
  },
  {
    "modelID": "1",
    "partID": "2",
    "avatarPartType": "1"
  },
  {
    "modelID": "1",
    "partID": "3",
    "avatarPartType": "1"
  },
  {
    "modelID": "1",
    "partID": "4",
    "avatarPartType": "1"
  },
  {
    "modelID": "1",
    "partID": "1",
    "avatarPartType": "2"
  },
  {
    "modelID": "1",
    "partID": "2",
    "avatarPartType": "2"
  },
  {
    "modelID": "1",
    "partID": "3",
    "avatarPartType": "2"
  },
  {
    "modelID": "1",
    "partID": "4",
    "avatarPartType": "2"
  },
  {
    "modelID": "1",
    "partID": "1",
    "avatarPartType": "3"
  },
  {
    "modelID": "1",
    "partID": "2",
    "avatarPartType": "3"
  },
  {
    "modelID": "1",
    "partID": "3",
    "avatarPartType": "3"
  },
  {
    "modelID": "1",
    "partID": "4",
    "avatarPartType": "3"
  },
  {
    "modelID": "1",
    "partID": "1",
    "avatarPartType": "4"
  },
  {
    "modelID": "1",
    "partID": "2",
    "avatarPartType": "4"
  },
  {
    "modelID": "1",
    "partID": "3",
    "avatarPartType": "4"
  },
  {
    "modelID": "1",
    "partID": "4",
    "avatarPartType": "4"
  }
]