id,equipmentType,slot,suit,basePlayerActions
1,,1,1,1|75|10:1|65|101:2|1|1
2,,2,1,1|75|10:1|65|102:2|2|1
3,,1,1,1|75|10:1|65|103:2|1|2
4,,2,1,1|75|10:1|65|104:2|2|2
5,,1,2,1|75|10:1|65|105:2|1|3
6,,2,2,1|75|10:1|65|106:2|2|3
7,,1,2,1|75|10:1|65|107:2|1|4
8,,2,2,1|75|10:1|65|108:2|2|4
9,,,,1|75|10:1|65|109
10,,,,1|75|10:1|65|110
11,,,,1|75|10:1|65|111
12,,,,1|75|10:1|65|112
13,,,,1|75|10:1|65|113
14,,,,1|75|10:1|65|114
15,,,,1|75|10:1|65|115
16,,,,1|75|10:1|65|116
17,,,,1|75|10:1|65|117
18,,,,1|75|10:1|65|118
19,,,,1|75|10:1|65|119
20,,,,1|75|10:1|65|120
