questID,type,goals,questExecuteOrder,preQuests,acceptConditions,acceptType,acceptNPC,acceptGiveItems,commitType,commitNPC,commitCostItems,isCanGiveUp,limitTime,selectOneReward,reward
1,,1,,,,1,,,,,,1,,,
2,,2,,0|1,,1,,,,,,1,,,
3,,3,,0|2,,1,,,,,,1,,,
4,,4,,0|3,,1,,,,,,1,,,
5,,5,,0|4,,1,,,,,,1,,,
6,,6,,0|5,,1,,,,,,1,,,
7,,7,,0|6,,1,,,,,,1,,,
8,,8,,0|7,,1,,,,,,1,,,
9,,9,,0|8,,1,,,,,,1,,,
101,,1001:1002:1003:1004:1005,0,,,,,,,,,,,,
102,,1001:1002:1003:1004:1005,1,,,,,,,,,,,,
103,,1001:1002:1003:1004:1005,2,,,,,,,,,,,,
1001,,1001,,,,,,,,,,,,,
1002,,1002,,,,,,,,,,,,,
1003,,1003,,,,,,,,,,,,,
1004,,1004,,,,,,,,,,,,,
1005,,1005,,,,,,,,,,,,,
1101,,1101,,,,,,,,,,,,,
1102,,1102,,,,,,,,,,,,,
1103,,1103,,,,,,,,,,,,,
1104,,1104,,,,,,,,,,,,,
1105,,1105,,,,,,,,,,,,,
