[
  {
    "level": "1",
    "pos": "25,0,25",
    "entityType": "3",
    "sceneID": "1001",
    "entityID": "1",
    "templateID": "1",
    "dir": "25,0,25",
    "patrolPath": ""
  },
  {
    "level": "1",
    "pos": "25,0,25",
    "entityType": "3",
    "sceneID": "1002",
    "entityID": "1",
    "templateID": "1",
    "dir": "25,0,25",
    "patrolPath": ""
  },
  {
    "level": "1",
    "pos": "25,0,75",
    "entityType": "3",
    "sceneID": "1002",
    "entityID": "2",
    "templateID": "1",
    "dir": "1,0,0",
    "patrolPath": ""
  },
  {
    "level": "1",
    "pos": "25,0,25",
    "entityType": "3",
    "sceneID": "1003",
    "entityID": "1",
    "templateID": "1",
    "dir": "25,0,25",
    "patrolPath": ""
  },
  {
    "level": "1",
    "pos": "25,0,75",
    "entityType": "3",
    "sceneID": "1003",
    "entityID": "2",
    "templateID": "1",
    "dir": "1,0,0",
    "patrolPath": ""
  },
  {
    "level": "1",
    "pos": "75,0,25",
    "entityType": "3",
    "sceneID": "1003",
    "entityID": "3",
    "templateID": "1",
    "dir": "1,0,0",
    "patrolPath": ""
  },
  {
    "level": "1",
    "pos": "25,0,25",
    "entityType": "3",
    "sceneID": "1004",
    "entityID": "1",
    "templateID": "1",
    "dir": "25,0,25",
    "patrolPath": ""
  },
  {
    "level": "1",
    "pos": "25,0,75",
    "entityType": "3",
    "sceneID": "1004",
    "entityID": "2",
    "templateID": "1",
    "dir": "1,0,0",
    "patrolPath": ""
  },
  {
    "level": "1",
    "pos": "75,0,25",
    "entityType": "3",
    "sceneID": "1004",
    "entityID": "3",
    "templateID": "1",
    "dir": "1,0,0",
    "patrolPath": ""
  },
  {
    "level": "1",
    "pos": "75,0,75",
    "entityType": "3",
    "sceneID": "1004",
    "entityID": "4",
    "templateID": "1",
    "dir": "1,0,0",
    "patrolPath": ""
  },
  {
    "level": "1",
    "pos": "25,0,25",
    "entityType": "3",
    "sceneID": "2001",
    "entityID": "1",
    "templateID": "1",
    "dir": "25,0,25",
    "patrolPath": ""
  },
  {
    "level": "1",
    "pos": "25,0,25",
    "entityType": "3",
    "sceneID": "2002",
    "entityID": "1",
    "templateID": "1",
    "dir": "25,0,25",
    "patrolPath": ""
  },
  {
    "level": "1",
    "pos": "25,0,75",
    "entityType": "3",
    "sceneID": "2002",
    "entityID": "2",
    "templateID": "1",
    "dir": "1,0,0",
    "patrolPath": ""
  },
  {
    "level": "1",
    "pos": "25,0,25",
    "entityType": "3",
    "sceneID": "2003",
    "entityID": "1",
    "templateID": "1",
    "dir": "25,0,25",
    "patrolPath": ""
  },
  {
    "level": "1",
    "pos": "25,0,75",
    "entityType": "3",
    "sceneID": "2003",
    "entityID": "2",
    "templateID": "1",
    "dir": "1,0,0",
    "patrolPath": ""
  },
  {
    "level": "1",
    "pos": "75,0,25",
    "entityType": "3",
    "sceneID": "2003",
    "entityID": "3",
    "templateID": "1",
    "dir": "1,0,0",
    "patrolPath": ""
  },
  {
    "level": "1",
    "pos": "25,0,25",
    "entityType": "3",
    "sceneID": "2004",
    "entityID": "1",
    "templateID": "1",
    "dir": "25,0,25",
    "patrolPath": ""
  },
  {
    "level": "1",
    "pos": "25,0,75",
    "entityType": "3",
    "sceneID": "2004",
    "entityID": "2",
    "templateID": "1",
    "dir": "1,0,0",
    "patrolPath": ""
  },
  {
    "level": "1",
    "pos": "75,0,25",
    "entityType": "3",
    "sceneID": "2004",
    "entityID": "3",
    "templateID": "1",
    "dir": "1,0,0",
    "patrolPath": ""
  },
  {
    "level": "1",
    "pos": "75,0,75",
    "entityType": "3",
    "sceneID": "2004",
    "entityID": "4",
    "templateID": "1",
    "dir": "1,0,0",
    "patrolPath": ""
  },
  {
    "level": "1",
    "pos": "25,0,25",
    "entityType": "3",
    "sceneID": "5001",
    "entityID": "1",
    "templateID": "1",
    "dir": "25,0,25",
    "patrolPath": ""
  },
  {
    "level": "1",
    "pos": "25,0,25",
    "entityType": "3",
    "sceneID": "5002",
    "entityID": "1",
    "templateID": "1",
    "dir": "25,0,25",
    "patrolPath": ""
  },
  {
    "level": "1",
    "pos": "25,0,75",
    "entityType": "3",
    "sceneID": "5002",
    "entityID": "2",
    "templateID": "1",
    "dir": "1,0,0",
    "patrolPath": ""
  },
  {
    "level": "1",
    "pos": "25,0,25",
    "entityType": "3",
    "sceneID": "5003",
    "entityID": "1",
    "templateID": "1",
    "dir": "25,0,25",
    "patrolPath": ""
  },
  {
    "level": "1",
    "pos": "25,0,75",
    "entityType": "3",
    "sceneID": "5003",
    "entityID": "2",
    "templateID": "1",
    "dir": "1,0,0",
    "patrolPath": ""
  },
  {
    "level": "1",
    "pos": "75,0,25",
    "entityType": "3",
    "sceneID": "5003",
    "entityID": "3",
    "templateID": "1",
    "dir": "1,0,0",
    "patrolPath": ""
  },
  {
    "level": "1",
    "pos": "25,0,25",
    "entityType": "3",
    "sceneID": "5004",
    "entityID": "1",
    "templateID": "1",
    "dir": "25,0,25",
    "patrolPath": ""
  },
  {
    "level": "1",
    "pos": "25,0,75",
    "entityType": "3",
    "sceneID": "5004",
    "entityID": "2",
    "templateID": "1",
    "dir": "1,0,0",
    "patrolPath": ""
  },
  {
    "level": "1",
    "pos": "75,0,25",
    "entityType": "3",
    "sceneID": "5004",
    "entityID": "3",
    "templateID": "1",
    "dir": "1,0,0",
    "patrolPath": ""
  },
  {
    "level": "1",
    "pos": "75,0,75",
    "entityType": "3",
    "sceneID": "5004",
    "entityID": "4",
    "templateID": "1",
    "dir": "1,0,0",
    "patrolPath": ""
  },
  {
    "level": "1",
    "pos": "25,0,25",
    "entityType": "3",
    "sceneID": "5101",
    "entityID": "1",
    "templateID": "1",
    "dir": "25,0,25",
    "patrolPath": ""
  },
  {
    "level": "1",
    "pos": "25,0,25",
    "entityType": "3",
    "sceneID": "5102",
    "entityID": "1",
    "templateID": "1",
    "dir": "25,0,25",
    "patrolPath": ""
  },
  {
    "level": "1",
    "pos": "25,0,75",
    "entityType": "3",
    "sceneID": "5102",
    "entityID": "2",
    "templateID": "1",
    "dir": "1,0,0",
    "patrolPath": ""
  },
  {
    "level": "1",
    "pos": "25,0,25",
    "entityType": "3",
    "sceneID": "5103",
    "entityID": "1",
    "templateID": "1",
    "dir": "25,0,25",
    "patrolPath": ""
  },
  {
    "level": "1",
    "pos": "25,0,75",
    "entityType": "3",
    "sceneID": "5103",
    "entityID": "2",
    "templateID": "1",
    "dir": "1,0,0",
    "patrolPath": ""
  },
  {
    "level": "1",
    "pos": "75,0,25",
    "entityType": "3",
    "sceneID": "5103",
    "entityID": "3",
    "templateID": "1",
    "dir": "1,0,0",
    "patrolPath": ""
  },
  {
    "level": "1",
    "pos": "25,0,25",
    "entityType": "3",
    "sceneID": "5104",
    "entityID": "1",
    "templateID": "1",
    "dir": "25,0,25",
    "patrolPath": ""
  },
  {
    "level": "1",
    "pos": "25,0,75",
    "entityType": "3",
    "sceneID": "5104",
    "entityID": "2",
    "templateID": "1",
    "dir": "1,0,0",
    "patrolPath": ""
  },
  {
    "level": "1",
    "pos": "75,0,25",
    "entityType": "3",
    "sceneID": "5104",
    "entityID": "3",
    "templateID": "1",
    "dir": "1,0,0",
    "patrolPath": ""
  },
  {
    "level": "1",
    "pos": "75,0,75",
    "entityType": "3",
    "sceneID": "5104",
    "entityID": "4",
    "templateID": "1",
    "dir": "1,0,0",
    "patrolPath": ""
  },
  {
    "level": "1",
    "pos": "25,0,25",
    "entityType": "3",
    "sceneID": "5201",
    "entityID": "1",
    "templateID": "1",
    "dir": "25,0,25",
    "patrolPath": ""
  },
  {
    "level": "1",
    "pos": "25,0,75",
    "entityType": "3",
    "sceneID": "5201",
    "entityID": "2",
    "templateID": "1",
    "dir": "1,0,0",
    "patrolPath": ""
  },
  {
    "level": "1",
    "pos": "75,0,25",
    "entityType": "3",
    "sceneID": "5201",
    "entityID": "3",
    "templateID": "1",
    "dir": "1,0,0",
    "patrolPath": ""
  },
  {
    "level": "1",
    "pos": "75,0,75",
    "entityType": "3",
    "sceneID": "5201",
    "entityID": "4",
    "templateID": "1",
    "dir": "1,0,0",
    "patrolPath": ""
  }
]