v -49.1 0.4 10.5
v -48.8 0.4 10.5
v -48.5 0.4 9.0
v -49.1 0.4 0.90000004
v -39.5 0.4 6.9
v -38.3 0.4 6.6000004
v -38.3 0.4 0.90000004
v -49.1 0.4 0.90000004
v -48.5 0.4 9.0
v -48.5 0.4 9.0
v -39.5 0.4 9.0
v -39.5 0.4 6.9
v -38.3 0.4 0.90000004
v -38.3 0.4 6.6000004
v -37.1 0.4 6.9
v -31.699999 0.4 6.9
v -30.199999 0.4 6.6000004
v -30.199999 0.4 0.90000004
v -37.1 0.4 6.9
v -37.1 0.4 15.6
v -31.699999 0.4 15.6
v -31.699999 0.4 6.9
v -29.0 0.4 6.9
v -21.499998 0.4 6.9
v -20.3 0.4 6.6000004
v -20.3 0.4 0.90000004
v -30.199999 0.4 0.90000004
v -30.199999 0.4 6.6000004
v -29.0 0.4 6.9
v -29.0 0.4 9.0
v -21.499998 0.4 9.0
v -21.499998 0.4 6.9
v -20.3 0.4 0.90000004
v -20.3 0.4 6.6000004
v -19.099998 0.4 6.9
v -13.099998 0.4 7.2000003
v -11.899998 0.4 6.9
v -11.899998 0.4 0.90000004
v -19.099998 0.4 15.6
v -13.099998 0.4 15.6
v -13.099998 0.4 7.2000003
v -19.099998 0.4 6.9
v -11.899998 0.4 0.90000004
v -11.899998 0.4 6.9
v -10.699997 0.4 7.2000003
v -0.79999924 0.4 9.3
v -0.79999924 0.4 0.90000004
v -10.699997 0.4 7.2000003
v -10.699997 0.4 9.0
v -0.79999924 0.4 9.3
v -48.5 0.4 11.700001
v -48.8 0.4 10.5
v -49.1 0.4 10.5
v -49.1 0.4 20.1
v -31.699999 0.4 15.6
v -37.1 0.4 15.6
v -37.1 0.4 18.0
v -31.4 0.4 18.300001
v -28.699999 0.4 49.2
v -29.0 0.4 17.7
v -29.3 0.4 18.300001
v -31.4 0.4 18.300001
v -37.1 0.4 18.0
v -39.2 0.4 18.300001
v -49.1 0.4 20.1
v -49.1 0.4 29.7
v -49.1 0.4 39.300003
v -49.1 0.4 49.2
v -38.9 0.4 49.2
v -39.2 0.4 18.300001
v -39.5 0.4 11.700001
v -48.5 0.4 11.700001
v -49.1 0.4 20.1
v -49.1 0.4 29.7
v -49.1 0.4 39.300003
v -38.9 0.4 49.2
v -28.699999 0.4 49.2
v -29.3 0.4 18.300001
v -31.4 0.4 18.300001
v -13.099998 0.4 15.6
v -19.099998 0.4 15.6
v -19.099998 0.4 18.0
v -13.099998 0.4 18.0
v -10.699997 0.4 49.2
v -0.79999924 0.4 49.2
v -0.79999924 0.4 39.600002
v -13.099998 0.4 18.0
v -19.099998 0.4 18.0
v -20.3 0.4 18.300001
v -11.0 0.4 18.300001
v -0.79999924 0.4 30.300001
v -0.79999924 0.4 20.7
v -11.0 0.4 18.300001
v -0.79999924 0.4 11.400001
v -10.699997 0.4 11.700001
v -11.0 0.4 18.300001
v -0.79999924 0.4 20.7
v -10.699997 0.4 49.2
v -0.79999924 0.4 39.600002
v -0.79999924 0.4 30.300001
v -11.0 0.4 18.300001
v -20.3 0.4 18.300001
v -20.3 0.4 49.2
v -21.499998 0.4 11.700001
v -29.0 0.4 11.700001
v -29.0 0.4 17.7
v -21.499998 0.4 18.0
v -29.0 0.4 17.7
v -28.699999 0.4 49.2
v -20.3 0.4 49.2
v -20.3 0.4 18.300001
v -21.499998 0.4 18.0
f 2 3 1
f 3 4 1
f 6 7 5
f 7 8 5
f 8 9 5
f 12 10 11
f 14 15 13
f 15 16 13
f 16 17 13
f 17 18 13
f 22 19 21
f 19 20 21
f 28 23 27
f 23 24 27
f 24 25 27
f 25 26 27
f 32 29 31
f 29 30 31
f 34 35 33
f 35 36 33
f 36 37 33
f 37 38 33
f 40 41 39
f 41 42 39
f 44 45 43
f 45 47 43
f 45 46 47
f 50 48 49
f 52 53 51
f 53 54 51
f 56 57 55
f 57 58 55
f 61 59 60
f 63 64 62
f 64 65 62
f 65 66 62
f 69 67 68
f 71 72 70
f 72 73 70
f 75 76 74
f 76 77 74
f 77 79 74
f 77 78 79
f 83 80 82
f 80 81 82
f 86 84 85
f 88 89 87
f 89 90 87
f 93 91 92
f 95 96 94
f 96 97 94
f 99 100 98
f 100 103 98
f 100 101 103
f 101 102 103
f 105 106 104
f 106 107 104
f 112 108 111
f 108 109 111
f 109 110 111
