[
  {
    "goalType": "1",
    "completeNum": "1",
    "goalParams": "1",
    "goalID": "1",
    "initNum": "",
    "shareWithTeam": ""
  },
  {
    "goalType": "1",
    "completeNum": "1",
    "goalParams": "2",
    "goalID": "2",
    "initNum": "",
    "shareWithTeam": ""
  },
  {
    "goalType": "1",
    "completeNum": "1",
    "goalParams": "3",
    "goalID": "3",
    "initNum": "",
    "shareWithTeam": ""
  },
  {
    "goalType": "1",
    "completeNum": "1",
    "goalParams": "4",
    "goalID": "4",
    "initNum": "",
    "shareWithTeam": ""
  },
  {
    "goalType": "1",
    "completeNum": "1",
    "goalParams": "5",
    "goalID": "5",
    "initNum": "",
    "shareWithTeam": ""
  },
  {
    "goalType": "1",
    "completeNum": "1",
    "goalParams": "6",
    "goalID": "6",
    "initNum": "",
    "shareWithTeam": ""
  },
  {
    "goalType": "1",
    "completeNum": "1",
    "goalParams": "7",
    "goalID": "7",
    "initNum": "",
    "shareWithTeam": ""
  },
  {
    "goalType": "1",
    "completeNum": "1",
    "goalParams": "8",
    "goalID": "8",
    "initNum": "",
    "shareWithTeam": ""
  },
  {
    "goalType": "1",
    "completeNum": "1",
    "goalParams": "9999",
    "goalID": "9",
    "initNum": "1",
    "shareWithTeam": ""
  },
  {
    "goalType": "2",
    "completeNum": "10",
    "goalParams": "11",
    "goalID": "1001",
    "initNum": "",
    "shareWithTeam": ""
  },
  {
    "goalType": "2",
    "completeNum": "10",
    "goalParams": "12",
    "goalID": "1002",
    "initNum": "",
    "shareWithTeam": ""
  },
  {
    "goalType": "2",
    "completeNum": "10",
    "goalParams": "13",
    "goalID": "1003",
    "initNum": "",
    "shareWithTeam": ""
  },
  {
    "goalType": "2",
    "completeNum": "10",
    "goalParams": "14",
    "goalID": "1004",
    "initNum": "",
    "shareWithTeam": ""
  },
  {
    "goalType": "2",
    "completeNum": "10",
    "goalParams": "15",
    "goalID": "1005",
    "initNum": "",
    "shareWithTeam": ""
  },
  {
    "goalType": "3",
    "completeNum": "10",
    "goalParams": "11",
    "goalID": "1101",
    "initNum": "",
    "shareWithTeam": ""
  },
  {
    "goalType": "3",
    "completeNum": "10",
    "goalParams": "12",
    "goalID": "1102",
    "initNum": "",
    "shareWithTeam": ""
  },
  {
    "goalType": "3",
    "completeNum": "10",
    "goalParams": "13",
    "goalID": "1103",
    "initNum": "",
    "shareWithTeam": ""
  },
  {
    "goalType": "3",
    "completeNum": "10",
    "goalParams": "14",
    "goalID": "1104",
    "initNum": "",
    "shareWithTeam": ""
  },
  {
    "goalType": "3",
    "completeNum": "10",
    "goalParams": "15",
    "goalID": "1105",
    "initNum": "",
    "shareWithTeam": ""
  }
]