dungeonID,dungeonLevel,dungeonType,dungeonLogicType,entranceRoomID,isSaveSceneGroup,isAutoSwitchNext,isForceSameLevel,enterCondition,openCondition,isPlayerRevive,playerReviveTimes,costItems,costAsset,enterDurationTime,prepareDuratiionTime,fightDurationTime,finishDurationTime,rewardDurationTime,quitDurationTime,noPlayerKeepTime
1,1,1,1,1,,1,,,,,,,,,,60,,,,
2,1,1,1,1,,,,,,,,,,,,60,,,,
3,1,1,1,1,,,,,,,,,,,,60,,,,
