[
  {
    "level": "1",
    "passiveSkillID": "1",
    "type": "2",
    "conditions": "",
    "actions": "0|1036|2",
    "coolDownDuration": ""
  },
  {
    "level": "2",
    "passiveSkillID": "2",
    "type": "2",
    "conditions": "",
    "actions": "",
    "coolDownDuration": ""
  },
  {
    "level": "1",
    "passiveSkillID": "3",
    "type": "2",
    "conditions": "",
    "actions": "",
    "coolDownDuration": ""
  }
]