sceneID,entityID,entityType,templateID,level,pos,dir,isLoading
1001,1,3,1,1,25:00:25,25:00:25,1
1002,1,3,1,1,25:00:25,25:00:25,1
1002,2,3,1,1,25:0:75,1:00:00,1
1003,1,3,1,1,25:00:25,25:00:25,1
1003,2,3,1,1,25:0:75,1:00:00,1
1003,3,3,1,1,75:00:25,1:00:00,1
1004,1,3,1,1,25:00:25,25:00:25,1
1004,2,3,1,1,25:0:75,1:00:00,1
1004,3,3,1,1,75:00:25,1:00:00,1
1004,4,3,1,1,75:0:75,1:00:00,1
2001,1,3,1,1,25:00:25,25:00:25,1
2002,1,3,1,1,25:00:25,25:00:25,
2002,2,3,1,1,25:0:75,1:00:00,
2003,1,3,1,1,25:00:25,25:00:25,
2003,2,3,1,1,25:0:75,1:00:00,
2003,3,3,1,1,75:00:25,1:00:00,
2004,1,3,1,1,25:00:25,25:00:25,
2004,2,3,1,1,25:0:75,1:00:00,
2004,3,3,1,1,75:00:25,1:00:00,
2004,4,3,1,1,75:0:75,1:00:00,
5001,1,3,1,1,25:00:25,25:00:25,
5002,1,3,1,1,25:00:25,25:00:25,
5002,2,3,1,1,25:0:75,1:00:00,
5003,1,3,1,1,25:00:25,25:00:25,
5003,2,3,1,1,25:0:75,1:00:00,
5003,3,3,1,1,75:00:25,1:00:00,
5004,1,3,1,1,25:00:25,25:00:25,
5004,2,3,1,1,25:0:75,1:00:00,
5004,3,3,1,1,75:00:25,1:00:00,
5004,4,3,1,1,75:0:75,1:00:00,
5101,1,3,1,1,25:00:25,25:00:25,
5102,1,3,1,1,25:00:25,25:00:25,
5102,2,3,1,1,25:0:75,1:00:00,
5103,1,3,1,1,25:00:25,25:00:25,
5103,2,3,1,1,25:0:75,1:00:00,
5103,3,3,1,1,75:00:25,1:00:00,
5104,1,3,1,1,25:00:25,25:00:25,
5104,2,3,1,1,25:0:75,1:00:00,
5104,3,3,1,1,75:00:25,1:00:00,
5104,4,3,1,1,75:0:75,1:00:00,
5201,1,3,1,1,25:00:25,25:00:25,
5201,2,3,1,1,25:0:75,1:00:00,
5201,3,3,1,1,75:00:25,1:00:00,
5201,4,3,1,1,75:0:75,1:00:00,
